<svg width="16" height="16" viewBox="0 0 16 16" fill="none" xmlns="http://www.w3.org/2000/svg">
<g id="clipboard-copy">
<g id="copy">
<path id="Union" fill-rule="evenodd" clip-rule="evenodd" d="M11 2H2V11H4V5V4H5H11V2ZM12 4V2V1H11H2H1V2V11V12H2H4V14V15H5H14H15V14V5V4H14H12ZM12 5H11H5V11V12V14H14V5H12Z" fill="black"/>
</g>
</g>
</svg>
