<svg width="16" height="16" viewBox="0 0 16 16" fill="none" xmlns="http://www.w3.org/2000/svg">
<g id="clone-original">
<g id="square-lock">
<path id="Union" fill-rule="evenodd" clip-rule="evenodd" d="M9 9.5C9 8.39543 9.89543 7.5 11 7.5C12.1046 7.5 13 8.39543 13 9.5V10H9V9.5ZM8 10V9.5C8 7.84315 9.34315 6.5 11 6.5C12.6569 6.5 14 7.84315 14 9.5V10H15V15H7V10H8Z" fill="black"/>
<path id="Union_2" fill-rule="evenodd" clip-rule="evenodd" d="M1.00098 0.999023H1.50098H14.501H15.001V1.49902V5H14.001V1.99902H2.00098V13.999H5V14.999H1.50098H1.00098V14.499V1.49902V0.999023Z" fill="black"/>
</g>
</g>
</svg>
