<svg width="16" height="16" viewBox="0 0 16 16" fill="none" xmlns="http://www.w3.org/2000/svg">
<g id="dialog-memory">
<g id="memory" clip-path="url(#clip0_1263_24919)">
<path id="Union" fill-rule="evenodd" clip-rule="evenodd" d="M6 0H7V2H6V0ZM12 4H4V12H12V4ZM4 3H3V4V12V13H4H12H13V12V4V3H12H4ZM4 0H3V2H4V0ZM16 6V7H14V6H16ZM16 4V3H14V4H16ZM6 14H7V16H6V14ZM4 14H3V16H4V14ZM2 6V7H0V6H2ZM2 4V3H0V4H2ZM9 0H10V2H9V0ZM16 10V9H14V10H16ZM9 14H10V16H9V14ZM2 10V9H0V10H2ZM12 0H13V2H12V0ZM16 13V12H14V13H16ZM12 14H13V16H12V14ZM2 13V12H0V13H2Z" fill="black"/>
</g>
</g>
<defs>
<clipPath id="clip0_1263_24919">
<rect width="16" height="16" fill="white"/>
</clipPath>
</defs>
</svg>
