<svg width="16" height="16" viewBox="0 0 16 16" fill="none" xmlns="http://www.w3.org/2000/svg">
<g id="dialog-extensions">
<g id="puzzle-piece">
<path id="Union" fill-rule="evenodd" clip-rule="evenodd" d="M9 1.5C8.17157 1.5 7.5 2.17157 7.5 3C7.5 3.13026 7.51649 3.25593 7.54723 3.37537L7.708 4H7.06301L4 4V6.06301V6.708L3.37537 6.54723C3.25593 6.51649 3.13026 6.5 3 6.5C2.17157 6.5 1.5 7.17157 1.5 8C1.5 8.82843 2.17157 9.5 3 9.5C3.13026 9.5 3.25593 9.48351 3.37537 9.45277L4 9.29201V9.93699V13H7.06301C7.28503 12.1374 8.06808 11.5 9 11.5C9.93192 11.5 10.715 12.1374 10.937 13H14V9.93699C13.1374 9.71497 12.5 8.93192 12.5 8C12.5 7.06808 13.1374 6.28503 14 6.06301V4H10.937H10.292L10.4528 3.37537C10.4835 3.25593 10.5 3.13026 10.5 3C10.5 2.17157 9.82843 1.5 9 1.5ZM6.5 3C6.5 1.61929 7.61929 0.5 9 0.5C10.3807 0.5 11.5 1.61929 11.5 3H14C14.5523 3 15 3.44772 15 4V6.5V7H14.5C13.9477 7 13.5 7.44772 13.5 8C13.5 8.55228 13.9477 9 14.5 9H15V9.5V13C15 13.5523 14.5523 14 14 14H10.5H10V13.5C10 12.9477 9.55229 12.5 9 12.5C8.44772 12.5 8 12.9477 8 13.5V14H7.5H4C3.44772 14 3 13.5523 3 13V10.5C1.61929 10.5 0.5 9.38071 0.5 8C0.5 6.61929 1.61929 5.5 3 5.5V4C3 3.44772 3.44772 3 4 3H6.5Z" fill="black"/>
</g>
</g>
</svg>
