<svg width="16" height="16" viewBox="0 0 16 16" fill="none" xmlns="http://www.w3.org/2000/svg">
<g id="dialog-warning">
<g id="sign-exclamation-triangle">
<path id="Union" fill-rule="evenodd" clip-rule="evenodd" d="M7.42265 2.50488L8 1.50488L8.57735 2.50488L14.9226 13.4952L15.5 14.4952H14.3453H1.6547H0.5L1.07735 13.4952L7.42265 2.50488ZM2.23205 13.4952L8 3.50488L13.7679 13.4952H2.23205ZM8.64623 10.412L8.79395 6.41201H7.20304L7.35077 10.412H8.64623ZM7.43316 12.3606C7.59035 12.514 7.7788 12.5907 7.9985 12.5907C8.13865 12.5907 8.26839 12.5556 8.3877 12.4856C8.50702 12.4136 8.60361 12.3179 8.67748 12.1986C8.75323 12.0774 8.79206 11.9429 8.79395 11.7952C8.79206 11.5793 8.71062 11.3946 8.54964 11.2412C8.39054 11.0878 8.20683 11.0111 7.9985 11.0111C7.7788 11.0111 7.59035 11.0878 7.43316 11.2412C7.27785 11.3946 7.20115 11.5793 7.20304 11.7952C7.20115 12.0168 7.27785 12.2053 7.43316 12.3606Z" fill="black"/>
</g>
</g>
</svg>
