<svg width="16" height="16" viewBox="0 0 16 16" fill="none" xmlns="http://www.w3.org/2000/svg">
<g id="distribute-horizontal-center">
<g id="arrange-distribute-horizontal-center">
<rect id="rectangle" opacity="0.3" x="7" y="3" width="10" height="5" transform="rotate(90 7 3)" fill="black"/>
<rect id="rectangle_2" opacity="0.3" x="14" y="3" width="10" height="5" transform="rotate(90 14 3)" fill="black"/>
<rect id="neutral" x="5" width="4" height="1" transform="rotate(90 5 0)" fill="black"/>
<rect id="neutral_2" x="5" y="12" width="4" height="1" transform="rotate(90 5 12)" fill="black"/>
<rect id="neutral_3" x="12" width="4" height="1" transform="rotate(90 12 0)" fill="black"/>
<rect id="neutral_4" x="12" y="12" width="4" height="1" transform="rotate(90 12 12)" fill="black"/>
<path id="neutral_5" fill-rule="evenodd" clip-rule="evenodd" d="M13 4L13 12L10 12L10 4L13 4ZM14 3L14 4L14 12L14 13L13 13L10 13L9 13L9 12L9 4L9 3L10 3L13 3L14 3ZM6 4L6 12L3 12L3 4L6 4ZM7 3L7 4L7 12L7 13L6 13L3 13L2 13L2 12L2 4L2 3L3 3L6 3L7 3Z" fill="black"/>
</g>
</g>
</svg>
