<svg width="16" height="16" viewBox="0 0 16 16" fill="none" xmlns="http://www.w3.org/2000/svg">
<g id="distribute-horizontal-baseline">
<g id="arrange-distribute-baseline-horizontal">
<path id="Union" fill-rule="evenodd" clip-rule="evenodd" d="M0 0H1V16H0V0ZM5.95996 11.9996H4.14746L6.90918 3.99956H9.08887L11.8467 11.9996H10.0342L9.44189 10.1753H6.55341L5.95996 11.9996ZM8.03027 5.82768L9.0132 8.85503H6.98293L7.96777 5.82768H8.03027ZM16 0H15V16H16V0Z" fill="black"/>
</g>
</g>
</svg>
