<svg width="16" height="16" viewBox="0 0 16 16" fill="none" xmlns="http://www.w3.org/2000/svg">
<g id="distribute-graph">
<g id="arrange-distribute-graph">
<path id="Union" opacity="0.3" fill-rule="evenodd" clip-rule="evenodd" d="M10 0H5V5H10V0ZM0 11H5V16H0V11ZM10 11H15V16H10V11Z" fill="black"/>
<path id="Union_2" fill-rule="evenodd" clip-rule="evenodd" d="M6 1H9V4H6V1ZM5 0H6H9H10V1V4V5H9H8V8H12.5H13V8.5V11H14H15V12V15V16H14H11H10V15V12V11H11H12V9H7.5H3V11H4H5V12V15V16H4H1H0V15V12V11H1H2V8.5V8H2.5H7V5H6H5V4V1V0ZM11 12H12H13H14V15H11V12ZM2 12H1V15H4V12H3H2Z" fill="black"/>
</g>
</g>
</svg>
