<svg width="16" height="16" viewBox="0 0 16 16" fill="none" xmlns="http://www.w3.org/2000/svg">
<g id="document-new">
<g id="document-plus">
<path id="neutral" fill-rule="evenodd" clip-rule="evenodd" d="M12.001 12V9H11.001V12H8.00098V13H11.001V16H12.001V13H15.001V12H12.001Z" fill="black"/>
<path id="Vector 828" opacity="0.3" d="M9 5V2L12 5H9Z" fill="black"/>
<path id="Subtract" fill-rule="evenodd" clip-rule="evenodd" d="M3.00049 1H3.50051H8.50051H8.70761L8.85406 1.14645L12.8541 5.14645L13.0005 5.29288L13.0005 5.49997L13.0006 7H12.0006L12.0005 6H8.50052H8.00052V5.5V2H4.00053L4.00098 14H6.00003V15H3.501H3.00101L3.001 14.5L3.00051 1.50002L3.00049 1ZM9.00052 2.70712L11.2934 5H9.00052V2.70712Z" fill="black"/>
</g>
</g>
</svg>
