<svg width="16" height="16" viewBox="0 0 16 16" fill="none" xmlns="http://www.w3.org/2000/svg">
<g id="document-import-web">
<g id="document-globe">
<path id="neutral" fill-rule="evenodd" clip-rule="evenodd" d="M13.9663 12.4579C13.9891 12.3086 14.001 12.1557 14.001 12C14.001 11.6834 13.9519 11.3782 13.861 11.0917C13.7319 11.1358 13.5687 11.1857 13.3713 11.2351C12.8328 11.3697 12.0421 11.5 11 11.5C9.95788 11.5 9.16717 11.3697 8.62873 11.2351C8.43222 11.1859 8.26954 11.1363 8.14073 11.0923C8.04995 11.3787 8.00098 11.6836 8.00098 12C8.00098 12.156 8.01289 12.3093 8.03586 12.4589L8.22142 12.5517L8.22394 12.5529C8.22788 12.5547 8.23566 12.5583 8.24728 12.5634C8.27052 12.5736 8.30911 12.5897 8.36306 12.61C8.47094 12.6504 8.64032 12.7072 8.87127 12.7649C9.33283 12.8803 10.0421 13 11 13C11.9579 13 12.6672 12.8803 13.1287 12.7649C13.3597 12.7072 13.5291 12.6504 13.6369 12.61C13.6909 12.5897 13.7295 12.5736 13.7527 12.5634C13.7643 12.5583 13.7721 12.5547 13.7761 12.5529L13.7786 12.5517L13.9663 12.4579ZM13.4657 13.7108C13.4351 13.7189 13.4037 13.727 13.3713 13.7351C12.8328 13.8697 12.0421 14 11 14C9.95788 14 9.16717 13.8697 8.62873 13.7351C8.59718 13.7272 8.56649 13.7193 8.53668 13.7114C9.07858 14.4902 9.98025 15 11.001 15C12.022 15 12.9239 14.49 13.4657 13.7108ZM13.1287 10.2649C13.229 10.2399 13.3177 10.215 13.3948 10.1915C12.8471 9.46767 11.9786 9 11.001 9C10.0231 9 9.15448 9.46788 8.60679 10.192C8.6835 10.2153 8.77166 10.24 8.87127 10.2649C9.33283 10.3803 10.0421 10.5 11 10.5C11.9579 10.5 12.6672 10.3803 13.1287 10.2649ZM11.001 16C13.2101 16 15.001 14.2091 15.001 12C15.001 9.79086 13.2101 8 11.001 8C8.79184 8 7.00098 9.79086 7.00098 12C7.00098 14.2091 8.79184 16 11.001 16Z" fill="black"/>
<path id="Vector 828" opacity="0.3" d="M9 5V2L12 5H9Z" fill="black"/>
<path id="Subtract" fill-rule="evenodd" clip-rule="evenodd" d="M3.00049 1H3.50051H8.50051H8.70761L8.85406 1.14645L12.8541 5.14645L13.0005 5.29288L13.0005 5.49997L13.0006 7H12.0006L12.0005 6H8.50052H8.00052V5.5V2H4.00053L4.00098 14H6.00003V15H3.501H3.00101L3.001 14.5L3.00051 1.50002L3.00049 1ZM9.00052 2.70712L11.2934 5H9.00052V2.70712Z" fill="black"/>
</g>
</g>
</svg>
