<svg width="16" height="16" viewBox="0 0 16 16" fill="none" xmlns="http://www.w3.org/2000/svg">
<g id="draw-geometry-circle-from-radius">
<g id="circle-radius">
<path id="Union" fill-rule="evenodd" clip-rule="evenodd" d="M8 2C4.68629 2 2 4.68629 2 8C2 11.3137 4.68629 14 8 14C11.3137 14 14 11.3137 14 8C14 6.5234 13.4666 5.17138 12.582 4.12611L8.96633 7.74175C8.98829 7.82413 9 7.9107 9 8C9 8.55228 8.55228 9 8 9C7.44772 9 7 8.55228 7 8C7 7.44772 7.44772 7 8 7C8.08986 7 8.17695 7.01185 8.25979 7.03408L11.8749 3.41892C10.8295 2.53376 9.4771 2 8 2ZM1 8C1 4.13401 4.13401 1 8 1C11.866 1 15 4.13401 15 8C15 11.866 11.866 15 8 15C4.13401 15 1 11.866 1 8Z" fill="black"/>
</g>
</g>
</svg>
