<svg width="16" height="16" viewBox="0 0 16 16" fill="none" xmlns="http://www.w3.org/2000/svg">
<g id="draw-geometry-circle-from-three-points">
<g id="circle-points-three">
<path id="shape" fill-rule="evenodd" clip-rule="evenodd" d="M9.48833 2.18628C12.082 2.84836 13.9998 5.2003 13.9998 8.00018C13.9998 8.67033 13.8899 9.31482 13.6872 9.91662C14.0339 10.0957 14.3018 10.4061 14.4252 10.7819C14.7949 9.92931 14.9998 8.98867 14.9998 8.00018C14.9998 4.54412 12.4951 1.67304 9.202 1.10303C9.38902 1.35324 9.49976 1.66377 9.49976 2.00018C9.49976 2.06319 9.49587 2.1253 9.48833 2.18628ZM6.51119 2.18628C6.50364 2.1253 6.49976 2.06319 6.49976 2.00018C6.49976 1.66378 6.6105 1.35323 6.79751 1.10303C3.50437 1.67304 0.999757 4.54412 0.999757 8.00018C0.999756 8.98867 1.20465 9.92931 1.57428 10.7819C1.69768 10.4061 1.9656 10.0957 2.31233 9.91662C2.10962 9.31482 1.99976 8.67033 1.99976 8.00018C1.99976 5.2003 3.91755 2.84836 6.51119 2.18628ZM3.94046 12.4186C3.68317 12.626 3.35596 12.7502 2.99976 12.7502C2.94965 12.7502 2.90012 12.7477 2.85127 12.7429C4.1304 14.1308 5.96355 15.0002 7.99976 15.0002C10.036 15.0002 11.8691 14.1308 13.1482 12.7429C13.0994 12.7477 13.0499 12.7502 12.9998 12.7502C12.6435 12.7502 12.3163 12.626 12.0591 12.4186C10.9907 13.4006 9.56525 14.0002 7.99976 14.0002C6.43426 14.0002 5.0088 13.4006 3.94046 12.4186Z" fill="black"/>
<path id="Union" fill-rule="evenodd" clip-rule="evenodd" d="M11.9998 11.2502C11.9998 11.8025 12.4475 12.2502 12.9998 12.2502C13.552 12.2502 13.9998 11.8025 13.9998 11.2502C13.9998 10.698 13.552 10.2502 12.9998 10.2502C12.4475 10.2502 11.9998 10.698 11.9998 11.2502ZM10.9998 11.2502C10.9998 12.3548 11.8952 13.2502 12.9998 13.2502C14.1043 13.2502 14.9998 12.3548 14.9998 11.2502C14.9998 10.1457 14.1043 9.25024 12.9998 9.25024C11.8952 9.25024 10.9998 10.1457 10.9998 11.2502ZM6.99976 2.00024C6.99976 2.55253 7.44747 3.00024 7.99976 3.00024C8.55204 3.00024 8.99976 2.55253 8.99976 2.00024C8.99976 1.44796 8.55204 1.00024 7.99976 1.00024C7.44747 1.00024 6.99976 1.44796 6.99976 2.00024ZM5.99976 2.00024C5.99976 3.10481 6.89519 4.00024 7.99976 4.00024C9.10433 4.00024 9.99976 3.10481 9.99976 2.00024C9.99976 0.895674 9.10433 0.000243883 7.99976 0.000243835C6.89519 0.000243786 5.99976 0.895674 5.99976 2.00024ZM2.99976 12.2502C2.44747 12.2502 1.99976 11.8025 1.99976 11.2502C1.99976 10.698 2.44747 10.2502 2.99976 10.2502C3.55204 10.2502 3.99976 10.698 3.99976 11.2502C3.99976 11.8025 3.55204 12.2502 2.99976 12.2502ZM2.99976 13.2502C1.89519 13.2502 0.999755 12.3548 0.999755 11.2502C0.999755 10.1457 1.89519 9.25024 2.99976 9.25024C4.10432 9.25024 4.99976 10.1457 4.99976 11.2502C4.99976 12.3548 4.10432 13.2502 2.99976 13.2502Z" fill="black"/>
</g>
</g>
</svg>
