<svg width="16" height="16" viewBox="0 0 16 16" fill="none" xmlns="http://www.w3.org/2000/svg">
<g id="edit-clone">
<g id="copy-lock">
<path id="Subtract" fill-rule="evenodd" clip-rule="evenodd" d="M2 2H11V4H5H4V5V11H2V2ZM14 4H12V2V1H11H2H1V2V11V12H2H4V14V15H5H6V14H5V5H14V8H15V5V4H14Z" fill="black"/>
<path id="Union" fill-rule="evenodd" clip-rule="evenodd" d="M10 10.5C10 9.67157 10.6716 9 11.5 9C12.3284 9 13 9.67157 13 10.5V12H10V10.5ZM9 12V10.5C9 9.11929 10.1193 8 11.5 8C12.8807 8 14 9.11929 14 10.5V12H15V16H8V12H9Z" fill="black"/>
</g>
</g>
</svg>
