<svg width="16" height="16" viewBox="0 0 16 16" fill="none" xmlns="http://www.w3.org/2000/svg">
<g id="edit-paste-style">
<g id="clipboard-stroke">
<path id="neutral" fill-rule="evenodd" clip-rule="evenodd" d="M7.00098 7C6.44869 7 6.00098 7.44772 6.00098 8V15C6.00098 15.5523 6.44869 16 7.00098 16H14.001C14.5533 16 15.001 15.5523 15.001 15V8C15.001 7.44772 14.5533 7 14.001 7H7.00098ZM13 9H8V14H13V9Z" fill="black"/>
<path id="Union" fill-rule="evenodd" clip-rule="evenodd" d="M5.00098 0H5.50098H10.501H11.001V0.5V2H13.501H14.001V2.5V6H13.001V3H11.001V3.5V4H10.501H5.50098H5.00098V3.5V3H3.00098V15H5V16H2.50098H2.00098V15.5V2.5V2H2.50098H5.00098V0.5V0ZM6.00098 3H10.001V1H6.00098V3ZM7.00098 15V8H14.001V15H7.00098ZM6.00098 7H7.00098H14.001H15.001V8V15V16H14.001H7.00098H6.00098V15V8V7Z" fill="black"/>
</g>
</g>
</svg>
