<svg width="16" height="16" viewBox="0 0 16 16" fill="none" xmlns="http://www.w3.org/2000/svg">
<g id="entries-linked">
<g id="link-closed">
<path id="Union" fill-rule="evenodd" clip-rule="evenodd" d="M10 12V10.0002H11V12C11 13.6569 9.65685 15 8 15C6.34315 15 5 13.6569 5 12V10.0002H6V12C6 13.1046 6.89543 14 8 14C9.10457 14 10 13.1046 10 12ZM11 6.00018H10V4C10 2.89543 9.10457 2 8 2C6.89543 2 6 2.89543 6 4V6.00018H5V4C5 2.34315 6.34315 1 8 1C9.65685 1 11 2.34315 11 4V6.00018ZM8.5 5.5V5H7.5V5.5L7.5 10.5V11H8.5V10.5L8.5 5.5Z" fill="black"/>
</g>
</g>
</svg>
