<svg width="16" height="16" viewBox="0 0 16 16" fill="none" xmlns="http://www.w3.org/2000/svg">
<g id="export-multi">
<g id="image-stack" clip-path="url(#clip0_1263_24501)">
<path id="Union" fill-rule="evenodd" clip-rule="evenodd" d="M3 2H4V3H3V13H13V12H14V13V14H13H12V15V16H11H1H0V15V5V4H1H2V3V2H3ZM2 5H1V15H11V14H3H2V13V5Z" fill="black"/>
<path id="Union_2" fill-rule="evenodd" clip-rule="evenodd" d="M5 1H15V11H5V1ZM4 0H5H15H16V1V11V12H15H5H4V11V1V0ZM9 4C9 4.55228 8.55228 5 8 5C7.44772 5 7 4.55228 7 4C7 3.44772 7.44772 3 8 3C8.55228 3 9 3.44772 9 4ZM14 10H6V8L8 6L9 7L12 4L14 6V10Z" fill="black"/>
</g>
</g>
<defs>
<clipPath id="clip0_1263_24501">
<rect width="16" height="16" fill="white"/>
</clipPath>
</defs>
</svg>
