<svg width="16" height="16" viewBox="0 0 16 16" fill="none" xmlns="http://www.w3.org/2000/svg">
<g id="fill-rule-even-odd">
<g id="fill-rule-even-odd_2">
<g id="Vector">
<path d="M5.68513 5.55286C6.43663 5.48752 7.22022 5.44619 8.00008 5.44619C8.77995 5.44619 9.56355 5.48752 10.3151 5.55286C9.37831 3.34258 8.31073 1.51647 8.00012 1C7.68977 1.51604 6.62204 3.34228 5.68513 5.55286Z" fill="black"/>
<path d="M4.25443 9.95607C4.42452 9.22119 4.62735 8.4632 4.86833 7.72154C5.10932 6.97985 5.39077 6.24739 5.68513 5.55286C3.29345 5.76078 1.22679 6.21185 0.639893 6.3476C1.03492 6.80239 2.44174 8.38205 4.25443 9.95607Z" fill="black"/>
<path d="M8.00004 12.6774C7.35368 12.2886 6.69547 11.8614 6.06457 11.4031C5.43365 10.9447 4.82401 10.4506 4.25443 9.95607C3.71312 12.2949 3.50347 14.3998 3.4512 15C4.00582 14.7648 5.94291 13.915 8.00004 12.6774Z" fill="black"/>
<path d="M11.7457 9.95604C11.1761 10.4506 10.5665 10.9446 9.93554 11.403C9.30463 11.8614 8.64641 12.2886 8.00004 12.6774C10.0572 13.915 11.9942 14.7648 12.5489 15C12.4967 14.4002 12.2871 12.2952 11.7457 9.95604Z" fill="black"/>
<path d="M15.3602 6.34759C14.7732 6.21182 12.7067 5.76078 10.3151 5.55286C10.6094 6.2473 10.8908 6.97966 11.1317 7.72124C11.3727 8.46299 11.5756 9.22107 11.7457 9.95604C13.5584 8.38203 14.9652 6.80238 15.3602 6.34759Z" fill="black"/>
</g>
</g>
</g>
</svg>
