<svg width="16" height="16" viewBox="0 0 16 16" fill="none" xmlns="http://www.w3.org/2000/svg">
<g id="font_collections">
<g id="folder-text" clip-path="url(#clip0_1263_25027)">
<path id="Rectangle 769" opacity="0.3" d="M8.5 4H13V5H9L8.5 4Z" fill="black"/>
<path id="Union" fill-rule="evenodd" clip-rule="evenodd" d="M8.83333 4L9.5 5H13V4H8.83333ZM8.16667 3L7.5 2H2H1V3V13V14H2H7.00098V13H2V3H6.96482L8.66795 5.5547L8.96482 6H9.5H14V8H15V6V5H14V3.5V3H13.5H8.16667ZM8.00098 9H16.001V16H8.00098V9ZM10.7028 15H9.54936L11.3068 9.90909H12.6939L14.4489 15H13.2955L12.9185 13.8391H11.0804L10.7028 15ZM12.0202 11.0724L12.6457 12.9989H11.3537L11.9805 11.0724H12.0202Z" fill="black"/>
</g>
</g>
<defs>
<clipPath id="clip0_1263_25027">
<rect width="16" height="16" fill="white"/>
</clipPath>
</defs>
</svg>
