<svg width="16" height="16" viewBox="0 0 16 16" fill="none" xmlns="http://www.w3.org/2000/svg">
<g id="format-justify-left">
<g id="text-align-left">
<path id="Union" fill-rule="evenodd" clip-rule="evenodd" d="M10 5H2V4H10V5ZM14 9H2V8H14V9ZM2 13H10V12H2V13Z" fill="black"/>
</g>
</g>
</svg>
