<svg width="16" height="16" viewBox="0 0 16 16" fill="none" xmlns="http://www.w3.org/2000/svg">
<g id="hamburger-menu">
<g id="menu">
<path id="Union" fill-rule="evenodd" clip-rule="evenodd" d="M2 3H14.002V4H2V3ZM2 7H14.002V8H2V7ZM14.002 11H2V12H14.002V11Z" fill="black"/>
</g>
</g>
</svg>
