<svg width="16" height="16" viewBox="0 0 16 16" fill="none" xmlns="http://www.w3.org/2000/svg">
<g id="hatches">
<g id="transform-hatches" clip-path="url(#clip0_1263_24573)">
<path id="shape" opacity="0.4" fill-rule="evenodd" clip-rule="evenodd" d="M3.49683 7.00322C2.77284 8.03845 1.83616 8.9152 0.742953 9.57113L0.314209 9.82839L0.828712 10.6859L1.25746 10.4286C2.67271 9.57946 3.85178 8.39712 4.69592 6.99121L4.07864 6.42141L3.49683 7.00322ZM6.37263 4.12743C6.35092 4.21596 6.32767 4.30411 6.30288 4.39183L7.11529 5.14176C7.56732 3.83206 7.70814 2.42162 7.50856 1.02452C7.43422 0.504178 6.72848 0.399421 6.5062 0.875732L5.82834 2.32829L7.00005 3.5L6.37263 4.12743ZM4.87948 7.16066L4.09998 8.2L4.07596 8.23502L1.69787 12.0404C1.38415 12.5424 1.97732 13.1172 2.46921 12.7878C4.09314 11.7004 5.47559 10.3082 6.54657 8.69951L5.80181 8.01203C5.28189 8.81294 4.67992 9.55788 4.00559 10.2346L4.91273 8.78299L5.61812 7.84247L4.87948 7.16066ZM7.19545 5.21575L7.9869 5.94632C8.01846 5.86653 8.04934 5.7864 8.07955 5.70596L8.49678 4.59479C8.38311 5.08535 8.2505 5.57082 8.09938 6.05014L8.90717 6.7958C9.5465 4.91929 9.91346 2.94692 9.98491 0.938311C10.0078 0.294222 9.11077 0.114858 8.88422 0.718195L7.19545 5.21575ZM9.21365 7.0787L9.9772 7.78351C10.2088 7.3361 10.423 6.87871 10.6189 6.41231C10.479 6.92785 10.3229 7.43857 10.1507 7.9437L10.9514 8.68276C11.5782 6.94056 12.0202 5.13132 12.2665 3.28456L12.3852 2.39375C12.4791 1.69002 11.4886 1.43535 11.2313 2.09699L9.87659 5.58064C9.67805 6.09117 9.45674 6.59098 9.21365 7.0787ZM11.1599 8.87523L11.9167 9.57383C12.2365 9.0014 12.5303 8.41382 12.7971 7.81279C12.6896 8.2347 12.5689 8.65263 12.4352 9.06599L13.0013 8.49988L13.5032 9.00183C13.6624 8.47749 13.8019 7.94648 13.9211 7.40989L13.9881 7.10847L13.995 7.07068L14.377 4.3961C14.4773 3.69343 13.4895 3.42939 13.2259 4.08844L12.1795 6.70443C11.8817 7.44897 11.541 8.1737 11.1599 8.87523ZM8.92889 10.8986L9.79921 11.7019L9.00127 12.4999L9.52165 13.0203C9.09888 13.5169 8.65292 13.995 8.18491 14.4528C7.69551 14.9315 6.93091 14.3029 7.30584 13.7302L7.38704 13.6062C7.95788 12.7342 8.47252 11.8298 8.92889 10.8986ZM9.5932 14.7093C9.81932 14.3927 10.0362 14.0702 10.2435 13.7422L10.9675 14.4661C10.7872 14.7449 10.6003 15.0198 10.4069 15.2905L10.0001 14.9999L9.5932 14.7093ZM8.35915 10.3727L6.88782 9.01451C6.20433 10.3582 5.3624 11.6261 4.37323 12.7893L4.01882 13.206C3.5796 13.7225 4.25884 14.4321 4.794 14.0159C6.14753 12.9631 7.34522 11.7363 8.35915 10.3727Z" fill="black"/>
<path id="Union" fill-rule="evenodd" clip-rule="evenodd" d="M2.99983 0.792969L3.35338 1.14652L5.35338 3.14652L5.70694 3.50008L5.35338 3.85363L4.82154 4.38547L11.8867 10.9072L12.6475 10.1464L13.0011 9.79289L13.3546 10.1464L15.3546 12.1464L15.7082 12.5L15.3546 12.8536L13.3546 14.8536L13.0011 15.2071L12.6475 14.8536L10.6475 12.8536L10.2939 12.5L10.6475 12.1464L11.1791 11.6149L4.11387 5.09314L3.35338 5.85363L2.99983 6.20718L2.64628 5.85363L0.646278 3.85363L0.292725 3.50008L0.646278 3.14652L2.64628 1.14652L2.99983 0.792969ZM1.70694 3.50008L2.99983 4.79297L4.29272 3.50008L2.99983 2.20718L1.70694 3.50008ZM11.7082 12.5L13.0011 13.7929L14.2939 12.5L13.0011 11.2071L11.7082 12.5Z" fill="black"/>
</g>
</g>
<defs>
<clipPath id="clip0_1263_24573">
<rect width="16" height="16" fill="white"/>
</clipPath>
</defs>
</svg>
