<svg width="16" height="16" viewBox="0 0 16 16" fill="none" xmlns="http://www.w3.org/2000/svg">
<g id="interpolate-scale-both">
<g id="interpolate-tiling-scale-x+y">
<path id="Union" opacity="0.4" fill-rule="evenodd" clip-rule="evenodd" d="M14 2H10V6H14V2ZM6 10H2V14H6V10Z" fill="black"/>
<path id="Union_2" d="M1.00024 1H7.00024V7H1.00024V1Z" fill="black"/>
<rect id="original" opacity="0.4" x="11" y="11" width="2" height="2" fill="black"/>
</g>
</g>
</svg>
