<svg width="16" height="16" viewBox="0 0 16 16" fill="none" xmlns="http://www.w3.org/2000/svg">
<g id="layout-vertical">
<g id="layout-rows-2">
<path id="Union" fill-rule="evenodd" clip-rule="evenodd" d="M14 8L14 14L1 14V8H14ZM14 7L14 1L1 1L1 7H14ZM15 0V1V14V15H14L1 15H0V14V1V0H1H14H15Z" fill="black"/>
</g>
</g>
</svg>
