<svg width="16" height="16" viewBox="0 0 16 16" fill="none" xmlns="http://www.w3.org/2000/svg">
<g id="list-remove">
<g id="math-sign-minus">
<path id="Union" fill-rule="evenodd" clip-rule="evenodd" d="M4.5 7.5L5 7.5L11 7.5L11.5 7.5V8.5H11L5 8.5H4.5L4.5 7.5Z" fill="black"/>
</g>
</g>
</svg>
