<svg width="16" height="16" viewBox="0 0 16 16" fill="none" xmlns="http://www.w3.org/2000/svg">
<g id="markers">
<g id="path-marker">
<path id="Union" fill-rule="evenodd" clip-rule="evenodd" d="M11 8C11 9.65685 9.65685 11 8 11C6.34315 11 5 9.65685 5 8C5 6.34315 6.34315 5 8 5C9.65685 5 11 6.34315 11 8ZM12 8C12 10.2091 10.2091 12 8 12C5.79086 12 4 10.2091 4 8C4 5.79086 5.79086 4 8 4C10.2091 4 12 5.79086 12 8ZM13 8C13 8.34247 12.9656 8.67689 12.9 9H15H16V7H15H12.9C12.9656 7.32311 13 7.65753 13 8ZM1 9H3.10002C3.03443 8.67689 3 8.34247 3 8C3 7.65753 3.03443 7.32311 3.10002 7H1H0V9H1Z" fill="black"/>
</g>
</g>
</svg>
