<svg width="16" height="16" viewBox="0 0 16 16" fill="none" xmlns="http://www.w3.org/2000/svg">
<g id="mesh-gradient-fit">
<g id="paint-gradient-mesh-arrow-diagonal">
<path id="Subtract" fill-rule="evenodd" clip-rule="evenodd" d="M13 2H8V5L10 7H13V2ZM2 2H7V5L5 7H2V2ZM2 13V8H5L7 10V13H2ZM10 8H11H13H14V2V1H13H2H1V2V13V14H2H8V13V11V10L10 8ZM9 7.5L7.5 6L6 7.5L7.5 9L9 7.5Z" fill="black"/>
<path id="Union" fill-rule="evenodd" clip-rule="evenodd" d="M10.5006 10H10.0005L10.0006 10.5001L10.001 14.0001L11.001 13.9999L11.0007 11.7074L14.2962 15H12.001V16H15.5006H16.0005L16.0006 15.5001L16.001 12.0001L15.001 11.9999L15.0007 14.2903L11.7075 11H14.001V10H10.5006Z" fill="black"/>
<g id="Container" opacity="0.5">
<rect id="Rectangle" opacity="0.3" x="2" y="14" width="13" height="1" transform="rotate(-90 2 14)" fill="black"/>
<rect id="Rectangle_2" opacity="0.2" x="3" y="14" width="13" height="1" transform="rotate(-90 3 14)" fill="black"/>
<rect id="Rectangle_3" opacity="0.11" x="4" y="14" width="13" height="1" transform="rotate(-90 4 14)" fill="black"/>
</g>
<g id="Container_2" opacity="0.5">
<rect id="Rectangle_4" opacity="0.3" x="1" y="2" width="13" height="1" fill="black"/>
<rect id="Rectangle_5" opacity="0.2" x="1" y="3" width="13" height="1" fill="black"/>
<rect id="Rectangle_6" opacity="0.11" x="1" y="4" width="13" height="1" fill="black"/>
</g>
<g id="Container_3" opacity="0.5">
<rect id="Rectangle_7" opacity="0.3" x="13" y="1" width="6" height="1" transform="rotate(90 13 1)" fill="black"/>
<rect id="Rectangle_8" opacity="0.2" x="12" y="1" width="6" height="1" transform="rotate(90 12 1)" fill="black"/>
<rect id="Rectangle_9" opacity="0.11" x="11" y="1" width="6" height="1" transform="rotate(90 11 1)" fill="black"/>
</g>
<g id="Container_4" opacity="0.5">
<rect id="Rectangle_10" opacity="0.3" x="7" y="13" width="6" height="1" transform="rotate(180 7 13)" fill="black"/>
<rect id="Rectangle_11" opacity="0.2" x="7" y="12" width="6" height="1" transform="rotate(180 7 12)" fill="black"/>
<rect id="Rectangle_12" opacity="0.11" x="7" y="11" width="6" height="1" transform="rotate(180 7 11)" fill="black"/>
</g>
</g>
</g>
</svg>
