<svg width="16" height="16" viewBox="0 0 16 16" fill="none" xmlns="http://www.w3.org/2000/svg">
<g id="mirror-symmetry">
<g id="simmetry" clip-path="url(#clip0_1263_24570)">
<path id="Vector 850" opacity="0.3" d="M4 0.5L7.5 4V12L4 15.5L0.5 12L4.5 8L0.5 4L4 0.5Z" fill="black"/>
<path id="Union" fill-rule="evenodd" clip-rule="evenodd" d="M13.0202 1.02022L12.7071 0.707107L12.6667 0.666667L12.3536 0.353553L12 0L11.6464 0.353553L11.3333 0.666667L11.2929 0.707107L10.9798 1.02022L10.6262 1.37377L11.3333 2.08088L12 1.41421L12.6667 2.08088L13.3738 1.37377L13.0202 1.02022ZM13.9191 3.33333L14.5858 4L13.9191 4.66667L14.6262 5.37377L14.9798 5.02022L15.2929 4.70711L15.3333 4.66667L15.6464 4.35355L16 4L15.6464 3.64645L15.3333 3.33333L15.2929 3.29289L14.9798 2.97978L14.6262 2.62623L13.9191 3.33333ZM13.3738 6.62623L12.6667 5.91912L11.9596 6.62623L11.2929 7.29286L12 7.99997L12.3536 7.64645L12.6667 7.33333L12.7071 7.29289L13.0202 6.97978L13.3738 6.62623ZM12 8.00003L11.2929 8.70714L11.9596 9.37377L12.6667 10.0809L13.3738 9.37377L13.0202 9.02022L12.7071 8.70711L12.6667 8.66667L12.3536 8.35355L12 8.00003ZM14.6262 10.6262L13.9191 11.3333L14.5858 12L13.9191 12.6667L14.6262 13.3738L14.9798 13.0202L15.2929 12.7071L15.3333 12.6667L15.6464 12.3536L16 12L15.6464 11.6464L15.3333 11.3333L15.2929 11.2929L14.9798 10.9798L14.6262 10.6262ZM13.3738 14.6262L12.6667 13.9191L12 14.5858L11.3333 13.9191L10.6262 14.6262L10.9798 14.9798L11.2929 15.2929L11.3333 15.3333L11.6464 15.6464L12 16L12.3536 15.6464L12.6667 15.3333L12.7071 15.2929L13.0202 14.9798L13.3738 14.6262ZM9.37378 13.3738L10.0809 12.6667L9.37378 11.9596L8.70715 11.2929L8.00004 12L8.35356 12.3536L8.66667 12.6667L8.70711 12.7071L9.02022 13.0202L9.37378 13.3738ZM9.37378 4.04044L8.70711 4.70711L8.00004 4.00004L8.00006 3.99994L8.35356 3.64645L8.66667 3.33333L8.70711 3.29289L9.02022 2.97978L9.37378 2.62623L10.0809 3.33333L9.37378 4.04044ZM4 0L4.00004 3.68357e-05H3.99997L4 0ZM2.06138e-06 4L3.8147e-05 3.99996V4.00004L2.06138e-06 4ZM0 12L3.8147e-05 12L3.05176e-05 12.0001L0.707137 12.7072L3.29292 15.293L4.00003 16.0001L4.70714 15.293L7.00003 13.0001V16.0001H8.00003V12.0001V4.00006V6.10352e-05H7.00003V3.00006L4.70714 0.707168L4.00003 6.10352e-05L3.29292 0.707168L0.707137 3.29295L3.05176e-05 4.00006L0.707137 4.70717L3.29292 7.29295L4.00003 8.00006L3.29292 8.70717L0.707137 11.293L3.8147e-05 12V12L0 12ZM7.00003 11.5858L4.00003 14.5858L1.41424 12.0001L4.70714 8.70717L5.41424 8.00006L4.70714 7.29295L1.41424 4.00006L4.00003 1.41427L7.00003 4.41427V11.5858Z" fill="black"/>
</g>
</g>
<defs>
<clipPath id="clip0_1263_24570">
<rect width="16" height="16" fill="white"/>
</clipPath>
</defs>
</svg>
