<svg width="16" height="16" viewBox="0 0 16 16" fill="none" xmlns="http://www.w3.org/2000/svg">
<g id="node-segment-curve">
<g id="line-curve">
<path id="Union" fill-rule="evenodd" clip-rule="evenodd" d="M5.45406 5.45406C3.27522 7.6329 2 10.7504 2 14.5V15H1V14.5C1 10.5176 2.35879 7.13511 4.74695 4.74695C7.13511 2.35879 10.5176 1 14.5 1H15V2H14.5C10.7504 2 7.6329 3.27522 5.45406 5.45406Z" fill="black"/>
</g>
</g>
</svg>
