<svg width="16" height="16" viewBox="0 0 16 16" fill="none" xmlns="http://www.w3.org/2000/svg">
<g id="node-type-cusp">
<g id="node-type-cusp_2">
<path id="Union" fill-rule="evenodd" clip-rule="evenodd" d="M8 2L7.29289 2.70711L4.70711 5.29289L4 6L4.70711 6.70711L7.29289 9.29289L8 10L8.70711 9.29289L11.2929 6.70711L12 6L11.2929 5.29289L8.70711 2.70711L8 2ZM8 8.58579L5.41421 6L8 3.41421L10.5858 6L8 8.58579ZM0 15.5002C0 12.396 1.63033 9.66584 3.93832 7.93832L4.65295 8.65295C2.52218 10.1986 1 12.6863 1 15.5002V16.0002H0V15.5002ZM10.4169 13.9307C9.8118 13.1477 9.38774 12.1313 9.15299 10.847L10.0327 9.96733C10.2105 11.4872 10.6264 12.5664 11.2081 13.3193C12.1365 14.5206 13.5762 15 15.5 15H16V16H15.5C13.4238 16 11.6135 15.4794 10.4169 13.9307Z" fill="black"/>
</g>
</g>
</svg>
