<svg width="16" height="16" viewBox="0 0 16 16" fill="none" xmlns="http://www.w3.org/2000/svg">
<g id="node-type-smooth">
<g id="node-type-smooth_2">
<path id="Union" fill-rule="evenodd" clip-rule="evenodd" d="M5.5 3H5V3.5V8.5V9H5.5H10.5H11V8.5V3.5V3H10.5H5.5ZM6 8V4H10V8H6ZM0 15.5C0 11.4256 1.68477 8.3907 4 6.78665V8.05304C2.26211 9.54005 1 12.0653 1 15.5V16H0V15.5ZM15 15.5C15 12.0653 13.7379 9.54005 12 8.05304V6.78665C14.3152 8.3907 16 11.4256 16 15.5V16H15V15.5Z" fill="black"/>
</g>
</g>
</svg>
