<svg width="16" height="16" viewBox="0 0 16 16" fill="none" xmlns="http://www.w3.org/2000/svg">
<g id="object-fill">
<g id="style-fill">
<path id="Union" fill-rule="evenodd" clip-rule="evenodd" d="M14 2H2V14H14V2ZM2 1H1V2V14V15H2H14H15V14V2V1H14H2Z" fill="black"/>
<rect id="Rectangle 662" opacity="0.5" x="1" y="1" width="14" height="14" fill="black"/>
</g>
</g>
</svg>
