<svg width="16" height="16" viewBox="0 0 16 16" fill="none" xmlns="http://www.w3.org/2000/svg">
<g id="object-blend-mode">
<g id="blend-on">
<path id="Ellipse 304" d="M12.5 9C12.5 11.4853 10.4853 13.5 8 13.5C5.51472 13.5 3.5 11.4853 3.5 9H12.5Z" fill="black"/>
<path id="Union" fill-rule="evenodd" clip-rule="evenodd" d="M8 2L4.46447 5.51472C2.51184 7.45584 2.51185 10.603 4.46447 12.5442C6.41709 14.4853 9.58291 14.4853 11.5355 12.5442C13.4882 10.603 13.4882 7.45584 11.5355 5.51472L8 2ZM10.8305 6.22391L8 3.41006L5.16948 6.22391C3.61017 7.77404 3.61017 10.2848 5.16948 11.835C6.73206 13.3883 9.26794 13.3883 10.8305 11.835C12.3898 10.2848 12.3898 7.77404 10.8305 6.22391Z" fill="black"/>
</g>
</g>
</svg>
