<svg width="16" height="16" viewBox="0 0 16 16" fill="none" xmlns="http://www.w3.org/2000/svg">
<g id="object-to-path">
<g id="bounding-box-node" clip-path="url(#clip0_1263_24933)">
<path id="Subtract" fill-rule="evenodd" clip-rule="evenodd" d="M4.4999 2L4.29284 1.79297L2.49959 0L0.707064 1.79275L0 2.4999L0.70715 3.20696L1.79326 4.29294L2 4.49965L2 11.4997L0.707064 12.7927L0 13.4999L0.70715 14.207L1.79326 15.2929L2.50041 16L3.20746 15.2928L4.29295 14.2072L4.5001 14L11.5002 14L11.7071 14.207L12.7933 15.2929L13.5004 16L14.2075 15.2928L15.2929 14.2072L16 13.5L15.2928 12.793L14 11.5003V4.50033L14.2075 4.29284L15.2929 3.20719L16 2.50002L15.2928 1.79297L13.4996 0L11.7071 1.79275L11.4998 2L4.4999 2ZM4.5001 3L4.29295 3.20719L3.20746 4.29284L3 4.50033L3 11.5003L4.29284 12.793L4.4999 13L11.4998 13L11.7071 12.7927L13 11.4997V4.49965L12.7933 4.29294L11.7071 3.20696L11.5002 3L4.5001 3ZM1.41421 2.49981L2.49969 1.4142L3.58579 2.50013L2.50031 3.58578L1.41421 2.49981ZM1.41421 13.4998L2.49969 12.4142L3.58579 13.5001L2.50031 14.5858L1.41421 13.4998ZM13.4997 1.4142L12.4142 2.49981L13.5003 3.58578L14.5858 2.50013L13.4997 1.4142ZM12.4142 13.4998L13.4997 12.4142L14.5858 13.5001L13.5003 14.5858L12.4142 13.4998Z" fill="black"/>
</g>
</g>
<defs>
<clipPath id="clip0_1263_24933">
<rect width="16" height="16" fill="white"/>
</clipPath>
</defs>
</svg>
