<svg width="16" height="16" viewBox="0 0 16 16" fill="none" xmlns="http://www.w3.org/2000/svg">
<g id="object-ungroup-pop-selection">
<g id="group-false-pop-selection">
<path id="Union" fill-rule="evenodd" clip-rule="evenodd" d="M5 5H8V8H5V5ZM4 4H5H8H9V5V8V9H8H5H4V8V5V4ZM15 10H10V15H15V10Z" fill="black"/>
<path id="Union_2" fill-rule="evenodd" clip-rule="evenodd" d="M2 1H1V2H2V1ZM1 0H0V1V2V3H1V4.99998H2L2 3H3V2V1.99998H5V0.999983H3V0H2H1ZM12 1H11V2H12V1ZM11 0H10V0.999983H8V1.99998H10V2V3H11L11 4.99998H12L12 3H13V2V1V0H12H11ZM11 11.0001H12V12.0001H11V11.0001ZM10 10.0001H11H12H13V11.0001V12.0001V13.0001H12H11H10V12.0001V11.0001V10.0001ZM2 11.0001H1V12.0001H2V11.0001ZM1 10.0001H0V11.0001V12.0001V13.0001H1H2H3V12.0001V12H5V11H3V10.0001H2H1ZM2 7.99996V10H1V7.99996H2Z" fill="black"/>
</g>
</g>
</svg>
