<svg width="16" height="16" viewBox="0 0 16 16" fill="none" xmlns="http://www.w3.org/2000/svg">
<g id="off-outline">
<g id="clear-circle">
<path id="Union" fill-rule="evenodd" clip-rule="evenodd" d="M14 8C14 11.3137 11.3137 14 8 14C4.68629 14 2 11.3137 2 8C2 4.68629 4.68629 2 8 2C11.3137 2 14 4.68629 14 8ZM15 8C15 11.866 11.866 15 8 15C4.13401 15 1 11.866 1 8C1 4.13401 4.13401 1 8 1C11.866 1 15 4.13401 15 8ZM5.5 4.79289L5.85355 5.14645L8 7.29289L10.1464 5.14645L10.5 4.79289L11.2071 5.5L10.8536 5.85355L8.70711 8L10.8536 10.1464L11.2071 10.5L10.5 11.2071L10.1464 10.8536L8 8.70711L5.85355 10.8536L5.5 11.2071L4.79289 10.5L5.14645 10.1464L7.29289 8L5.14645 5.85355L4.79289 5.5L5.5 4.79289Z" fill="black"/>
</g>
</g>
</svg>
