<svg width="16" height="16" viewBox="0 0 16 16" fill="none" xmlns="http://www.w3.org/2000/svg">
<g id="paint-order-fms">
<path id="shape" opacity="0.5" d="M6 16V11L9.75 9.75L11 6H16V16H6Z" fill="black"/>
<path id="Union" fill-rule="evenodd" clip-rule="evenodd" d="M4.46927 2.30448C4.95457 2.10346 5.47471 2 6 2C6.52529 2 7.04543 2.10346 7.53073 2.30448C8.01604 2.5055 8.45699 2.80014 8.82843 3.17157C9.19986 3.54301 9.4945 3.98396 9.69552 4.46927C9.89654 4.95457 10 5.47471 10 6C10 6.52529 9.89654 7.04543 9.69552 7.53073C9.4945 8.01604 9.19986 8.45699 8.82843 8.82843C8.45699 9.19986 8.01604 9.4945 7.53073 9.69552C7.04543 9.89654 6.52529 10 6 10C4.93913 10 3.92172 9.57857 3.17157 8.82843C2.42143 8.07828 2 7.06087 2 6C2 5.47471 2.10346 4.95457 2.30448 4.46927C2.5055 3.98396 2.80014 3.54301 3.17157 3.17157C3.54301 2.80014 3.98396 2.5055 4.46927 2.30448ZM6 0C5.21207 0 4.43185 0.155195 3.7039 0.456723C2.97595 0.758251 2.31451 1.20021 1.75736 1.75736C1.20021 2.31451 0.758251 2.97595 0.456723 3.7039C0.155195 4.43185 0 5.21207 0 6C0 7.5913 0.632141 9.11742 1.75736 10.2426C2.64405 11.1293 3.77969 11.7098 5 11.9161V16H6V12C6.78793 12 7.56815 11.8448 8.2961 11.5433C9.02405 11.2417 9.68549 10.7998 10.2426 10.2426C10.7998 9.68549 11.2417 9.02406 11.5433 8.2961C11.8448 7.56815 12 6.78793 12 6H16V5H11.9161C11.8411 4.55637 11.7163 4.12154 11.5433 3.7039C11.2417 2.97594 10.7998 2.31451 10.2426 1.75736C9.68549 1.20021 9.02405 0.758251 8.2961 0.456723C7.56815 0.155195 6.78793 0 6 0Z" fill="black"/>
</g>
</svg>
