<svg width="16" height="16" viewBox="0 0 16 16" fill="none" xmlns="http://www.w3.org/2000/svg">
<g id="path-tweak-attract">
<g id="tweak-path-attract" clip-path="url(#clip0_1263_24671)">
<path id="Subtract" fill-rule="evenodd" clip-rule="evenodd" d="M0.499023 3H-0.000976562V4H0.499023H1.2C1.66209 4 2.11961 4.0915 2.54615 4.26923L5.11538 5.33974C6.96154 6.10897 9.03846 6.10897 10.8846 5.33974L13.4538 4.26923C13.8804 4.0915 14.3379 4 14.8 4H15.499H15.999V3H15.499H14.8C14.2059 3 13.6176 3.11765 13.0692 3.34615L10.5 4.41667C8.9 5.08333 7.1 5.08333 5.5 4.41667L2.93077 3.34615C2.38235 3.11765 1.79412 3 1.2 3H0.499023ZM0.499046 13H-0.000953674V12H0.499046H1.20002C1.66211 12 2.11963 11.9085 2.54618 11.7308L5.11541 10.6603C6.96156 9.89103 9.03848 9.89103 10.8846 10.6603L13.4539 11.7308C13.8804 11.9085 14.3379 12 14.8 12H15.499H15.999V13H15.499H14.8C14.2059 13 13.6177 12.8824 13.0693 12.6538L10.5 11.5833C8.90002 10.9167 7.10002 10.9167 5.50002 11.5833L2.93079 12.6538C2.38238 12.8824 1.79414 13 1.20002 13H0.499046Z" fill="black"/>
</g>
</g>
<defs>
<clipPath id="clip0_1263_24671">
<rect width="16" height="16" fill="white"/>
</clipPath>
</defs>
</svg>
