<svg width="16" height="16" viewBox="0 0 16 16" fill="none" xmlns="http://www.w3.org/2000/svg">
<g id="path-mode-polyline">
<g id="path-mode-polyline_2">
<path id="Union" fill-rule="evenodd" clip-rule="evenodd" d="M1.68774 5.60962L6.68774 1.60962L7.4933 2.08221L6.5269 7.88343L9.49346 9.49032L11.6747 7.62045L12.0543 7.29503L12.7051 8.05424L12.3255 8.37966L10.435 10.0003L14.2382 12.0604L14.6779 12.2985L14.2016 13.1778L13.7619 12.9397L9.62204 10.6972L5.32649 14.3797L4.50786 13.9179L5.42325 8.4229L1.76195 6.4397L1.68774 5.60962ZM5.59702 7.37975L6.29219 3.20668L2.90117 5.9195L5.59702 7.37975ZM6.35312 8.92658L5.72039 12.7248L8.68049 10.1872L6.35312 8.92658Z" fill="black"/>
</g>
</g>
</svg>
