<svg width="16" height="16" viewBox="0 0 16 16" fill="none" xmlns="http://www.w3.org/2000/svg">
<g id="path-break-apart">
<g id="boolean-break-apart" clip-path="url(#clip0_1263_24847)">
<path id="Union" fill-rule="evenodd" clip-rule="evenodd" d="M1 1H10V10H1V1ZM0 0H1H10H11V1V10V11H10H1H0V10V1V0ZM10 16C7.38756 16 5.16508 14.3304 4.34141 12H5.41604C6.1876 13.7659 7.94968 15 10 15C12.7614 15 15 12.7614 15 10C15 7.94968 13.7659 6.1876 12 5.41604V4.34141C14.3304 5.16508 16 7.38756 16 10C16 13.3137 13.3137 16 10 16ZM5.10002 9C5.4977 7.04087 7.04087 5.4977 9 5.10002V4.08296C6.4875 4.50448 4.50448 6.48749 4.08296 9H5.10002Z" fill="black"/>
</g>
</g>
<defs>
<clipPath id="clip0_1263_24847">
<rect width="16" height="16" fill="white"/>
</clipPath>
</defs>
</svg>
