<svg width="16" height="16" viewBox="0 0 16 16" fill="none" xmlns="http://www.w3.org/2000/svg">
<g id="perspective-envelope">
<g id="transform-perspective" clip-path="url(#clip0_1263_24580)">
<path id="shape" opacity="0.4" d="M8 4L9 6.5L12.5 7.5L9.6 8.21053L10.5 11L8 9.47368L4 12.5L6 7.78947L4 5.68421L6.8 6.10526L8 4Z" fill="black"/>
<path id="Subtract" fill-rule="evenodd" clip-rule="evenodd" d="M4.64604 2.14612L4.29284 1.79297L2.49959 0L0.707064 1.79275L0 2.4999L0.70715 3.20696L1.79326 4.29294L2 4.49965L2 11.4997L0.707064 12.7927L0 13.4999L0.70715 14.207L1.79326 15.2929L2.50041 16L3.20746 15.2928L4.29295 14.2072L4.64625 13.8538L11.6125 12.1123L11.7071 12.207L12.7933 13.2929L13.5004 14L14.2075 13.2928L15.2929 12.2072L16 11.5L15.2928 10.793L14 9.50033V6.50033L14.2075 6.29284L15.2929 5.20718L16 4.50002L15.2928 3.79297L13.4996 2L11.7071 3.79275L11.6122 3.88765L4.64604 2.14612ZM4.38778 3.11233L4.29295 3.20719L3.20746 4.29284L3 4.50033L3 11.5003L4.29284 12.793L4.38759 12.8877L11.3537 11.1462L11.7071 10.7927L13 9.49965V6.49965L12.7933 6.29294L11.7071 5.20696L11.354 4.8539L4.38778 3.11233ZM1.41421 2.49981L2.49969 1.4142L3.58579 2.50013L2.50031 3.58578L1.41421 2.49981ZM1.41421 13.4998L2.49969 12.4142L3.58579 13.5001L2.50031 14.5858L1.41421 13.4998ZM13.4997 3.4142L12.4142 4.49981L13.5003 5.58578L14.5858 4.50013L13.4997 3.4142ZM12.4142 11.4998L13.4997 10.4142L14.5858 11.5001L13.5003 12.5858L12.4142 11.4998Z" fill="black"/>
</g>
</g>
<defs>
<clipPath id="clip0_1263_24580">
<rect width="16" height="16" fill="white"/>
</clipPath>
</defs>
</svg>
