<svg width="16" height="16" viewBox="0 0 16 16" fill="none" xmlns="http://www.w3.org/2000/svg">
<g id="remove-color">
<g id="clear">
<path id="Union" fill-rule="evenodd" clip-rule="evenodd" d="M7.99991 8.70721L3.85359 12.8535L3.14648 12.1464L7.2928 8.0001L3.14648 3.85384L3.85359 3.14673L7.99991 7.293L12.1465 3.14648L12.8536 3.8536L8.70702 8.0001L12.8536 12.1466L12.1465 12.8537L7.99991 8.70721Z" fill="black"/>
</g>
</g>
</svg>
