<svg width="16" height="16" viewBox="0 0 16 16" fill="none" xmlns="http://www.w3.org/2000/svg">
<g id="rotate-random">
<g id="arrows-random">
<path id="Union" fill-rule="evenodd" clip-rule="evenodd" d="M11.6464 2.35359L13.293 4.00011H11.4279C10.374 4.00011 9.37613 4.47505 8.71151 5.29304L8.44472 5.6214L9.08896 6.4143L9.48763 5.92363C9.96235 5.33936 10.6751 5.00011 11.4279 5.00011H13.2928L11.6464 6.64648L12.3536 7.35359L14.8536 4.85359L15.2071 4.50004L14.8536 4.14648L12.3536 1.64648L11.6464 2.35359ZM13.293 11.0001H11.4279C10.6751 11.0001 9.96235 10.6608 9.48763 10.0766L4.78849 4.293C4.12387 3.47502 3.12604 3.00008 2.07209 3.00008H1V4.00008H2.07209C2.82491 4.00008 3.53765 4.33932 4.01237 4.92359L8.71151 10.7072C9.37613 11.5251 10.374 12.0001 11.4279 12.0001H13.2928L11.6464 13.6464L12.3536 14.3536L14.8536 11.8536L15.2071 11.5L14.8536 11.1464L12.3536 8.64645L11.6464 9.35355L13.293 11.0001ZM5.22354 9.58592L5.86778 10.3788L4.78849 11.7072C4.12387 12.5252 3.12604 13.0001 2.07209 13.0001H1V12.0001H2.07209C2.82491 12.0001 3.53765 11.6609 4.01237 11.0766L5.22354 9.58592Z" fill="black"/>
</g>
</g>
</svg>
