<svg width="16" height="16" viewBox="0 0 16 16" fill="none" xmlns="http://www.w3.org/2000/svg">
<g id="roughen">
<g id="tweak-path-roughen" clip-path="url(#clip0_1263_24579)">
<path id="Union" fill-rule="evenodd" clip-rule="evenodd" d="M7.86334 1.60547L8.37095 2.16384L12.9711 7.22403L16.1053 3.19326L17 2.04259V3.50018V8.50018V8.70724L16.8536 8.85368L13.3546 12.3537L13.001 12.7073L12.6474 12.3537L8.13789 7.84419L5.44718 13.2238L5.08528 13.9474L4.59995 13.3001L2.01067 9.84662L-0.093187 12.7909L-1 14.0599V12.5002V8.50018V8.33989L-0.906813 8.20948L1.59416 4.70948L1.99128 4.15374L2.40102 4.70024L4.89733 8.02973L7.54702 2.29059L7.86334 1.60547ZM8.13862 3.39488L5.45395 9.20976L5.10267 9.97062L4.59995 9.30011L2.01067 5.84662L0 8.66046V10.9404L1.59416 8.70948L1.99128 8.15374L2.40102 8.70024L4.91472 12.0529L7.55379 6.77651L7.86407 6.15616L8.35453 6.64662L13.0009 11.293L16 8.29311V4.95777L13.3957 8.30709L13.0308 8.77633L12.631 8.33651L8.13862 3.39488Z" fill="black"/>
</g>
</g>
<defs>
<clipPath id="clip0_1263_24579">
<rect width="16" height="16" fill="white"/>
</clipPath>
</defs>
</svg>
