<svg width="16" height="16" viewBox="0 0 16 16" fill="none" xmlns="http://www.w3.org/2000/svg">
<g id="rounding">
<g id="math-rounding" clip-path="url(#clip0_1263_24520)">
<path id="Union" fill-rule="evenodd" clip-rule="evenodd" d="M3.3782 9.00018V2.45472H2.07741L0.457031 3.48065V4.70792L1.95597 3.76829H1.99432V9.00018H3.3782ZM4.93386 8.00302V9.00018H9.60005V7.86879H6.85147V7.82404L7.80708 6.88761C8.25666 6.47852 8.60503 6.12802 8.85218 5.83612C9.09934 5.54208 9.27086 5.27468 9.36674 5.03391C9.46476 4.79315 9.51376 4.54918 9.51376 4.30202C9.51376 3.92489 9.41681 3.59038 9.22292 3.29847C9.02903 3.00657 8.75737 2.77859 8.40794 2.61452C8.06064 2.44833 7.65261 2.36523 7.18386 2.36523C6.72789 2.36523 6.3252 2.45153 5.97576 2.62411C5.62633 2.7967 5.35467 3.04066 5.16078 3.356C4.96689 3.67134 4.86994 4.04315 4.86994 4.47141H6.18351C6.18351 4.26261 6.22399 4.08256 6.30495 3.93129C6.38592 3.78001 6.50098 3.66389 6.65012 3.58292C6.79927 3.50195 6.97399 3.46147 7.17427 3.46147C7.36603 3.46147 7.53755 3.49982 7.68883 3.57653C7.84011 3.6511 7.95943 3.7587 8.04679 3.89933C8.13414 4.03782 8.17782 4.20295 8.17782 4.39471C8.17782 4.56729 8.14267 4.72816 8.07235 4.87731C8.00204 5.02433 7.8987 5.17454 7.76234 5.32795C7.62811 5.48136 7.46191 5.65394 7.26376 5.8457L4.93386 8.00302ZM12 13.0856L12 12.0002H13.0854C13.1576 12.2049 13.2756 12.3971 13.4393 12.5609C14.0251 13.1466 14.9749 13.1466 15.5607 12.5609C16.1464 11.9751 16.1464 11.0253 15.5607 10.4395C14.9749 9.85375 14.0251 9.85375 13.4393 10.4395C13.2756 10.6033 13.1576 10.7955 13.0854 11.0002H12L12 8.00019H11L11 11.0002L8 11.0002V12.0002L11 12.0002L11 13.0856C10.7953 13.1578 10.6031 13.2758 10.4393 13.4395C9.85356 14.0253 9.85356 14.9751 10.4393 15.5608C11.0251 16.1466 11.9749 16.1466 12.5607 15.5608C13.1464 14.9751 13.1464 14.0253 12.5607 13.4395C12.3969 13.2758 12.2047 13.1578 12 13.0856ZM14.995 11.9952C15.2683 11.7218 15.2683 11.2786 14.995 11.0052C14.7216 10.7319 14.2784 10.7319 14.005 11.0052C13.7317 11.2786 13.7317 11.7218 14.005 11.9952C14.2784 12.2685 14.7216 12.2685 14.995 11.9952ZM11.995 14.9952C12.2683 14.7218 12.2683 14.2786 11.995 14.0052C11.7216 13.7318 11.2784 13.7318 11.005 14.0052C10.7317 14.2786 10.7317 14.7218 11.005 14.9952C11.2784 15.2685 11.7216 15.2685 11.995 14.9952Z" fill="black"/>
</g>
</g>
<defs>
<clipPath id="clip0_1263_24520">
<rect width="16" height="16" fill="white"/>
</clipPath>
</defs>
</svg>
