<svg width="16" height="16" viewBox="0 0 16 16" fill="none" xmlns="http://www.w3.org/2000/svg">
<g id="selection-lower">
<g id="arrange-lower">
<path id="neutral" opacity="0.3" d="M1 8H15V11H1V8Z" fill="black"/>
<path id="Union" fill-rule="evenodd" clip-rule="evenodd" d="M8 13H1V14H8V13ZM14 10V9H2V10H14ZM2 8H1V9V10V11H2H14H15V10V9V8H14H2ZM14.1464 2.64669L14.5 2.29314L15.2071 3.00024L14.8536 3.3538L12.8536 5.3538L12.5 5.70735L12.1464 5.3538L10.1464 3.3538L9.79289 3.00024L10.5 2.29314L10.8536 2.64669L12 3.79314V0.5V0H13V0.5V3.79314L14.1464 2.64669ZM1 5H8V6H1V5ZM8 2H1V3H8V2Z" fill="black"/>
</g>
</g>
</svg>
