<svg width="16" height="16" viewBox="0 0 16 16" fill="none" xmlns="http://www.w3.org/2000/svg">
<g id="shape-polygon">
<g id="pentagon">
<path id="Polygon 2" opacity="0.1" d="M8 0.932129L15.1329 6.1145L12.4084 14.4998H3.59161L0.867076 6.1145L8 0.932129Z" fill="black"/>
<path id="Union" fill-rule="evenodd" clip-rule="evenodd" d="M8.00001 0.313965L8.2939 0.52749L15.4268 5.70986L15.7207 5.92339L15.6085 6.26888L12.8839 14.6541L12.7717 14.9996H12.4084H3.59162H3.22835L3.11609 14.6541L0.391554 6.26888L0.279297 5.92339L0.573189 5.70986L7.70611 0.52749L8.00001 0.313965ZM1.45487 6.30535L3.95489 13.9996H12.0451L14.5451 6.30535L8.00001 1.55003L1.45487 6.30535Z" fill="black"/>
</g>
</g>
</svg>
