<svg width="16" height="16" viewBox="0 0 16 16" fill="none" xmlns="http://www.w3.org/2000/svg">
<g id="shape-star">
<g id="star">
<path id="Star 12" opacity="0.1" d="M8 1.41016L9.65248 6.49595H15L10.6738 9.63915L12.3262 14.7249L8 11.5817L3.67376 14.7249L5.32624 9.63915L1 6.49595H6.34752L8 1.41016Z" fill="black"/>
<path id="Union" fill-rule="evenodd" clip-rule="evenodd" d="M7.99995 3.02791L6.823 6.65018L6.71074 6.99568H6.34747H2.53879L5.62008 9.23436L5.91397 9.44789L5.80171 9.79338L4.62477 13.4157L7.70605 11.177L7.99995 10.9634L8.29384 11.177L11.3751 13.4157L10.1982 9.79338L10.0859 9.44789L10.3798 9.23436L13.4611 6.99568H9.65242H9.28915L9.1769 6.65018L7.99995 3.02791ZM7.52442 1.25537L8.47548 1.25537L10.0157 5.99568H14.9999L15.2938 6.90018L11.2615 9.82985L12.8017 14.5702L12.0323 15.1292L7.99995 12.1995L3.9676 15.1292L3.19818 14.5702L4.7384 9.82985L0.706055 6.90018L0.999947 5.99568H5.9842L7.52442 1.25537Z" fill="black"/>
</g>
</g>
</svg>
