<svg width="16" height="16" viewBox="0 0 16 16" fill="none" xmlns="http://www.w3.org/2000/svg">
<g id="sketch">
<g id="transform-sketch" clip-path="url(#clip0_1263_24566)">
<path id="shape" fill-rule="evenodd" clip-rule="evenodd" d="M-0.000178275 4.4526C-0.000178276 4.48227 0.0130021 4.51042 0.0357983 4.52942L2.47058 6.55868L0.0103153 11.4786C0.00336817 11.4925 -0.000247176 11.5078 -0.000244139 11.5234L-0.000166476 11.9203C-0.000157367 11.9669 0.0319803 12.0073 0.0773451 12.0177L1.57023 12.3623C1.60418 12.3701 1.6316 12.3951 1.64261 12.4281L2.45494 14.8648C2.47686 14.9305 2.55738 14.9546 2.61177 14.9116L4.83725 13.1547C4.86107 13.1359 4.89214 13.129 4.92171 13.1358L5.05578 13.1667L5.97748 15.9315C5.99109 15.9723 6.02926 15.9998 6.07228 15.9999L6.46644 16.0001C6.4881 16.0001 6.50918 15.9931 6.52651 15.9801L8.64281 14.3929L12.4815 15.9924C12.4937 15.9974 12.5068 16 12.52 16L12.8719 15.9999C12.937 15.9999 12.9847 15.9388 12.9689 15.8757L12.4599 13.8397L13.8921 14.4536C13.9487 14.4779 14.0135 14.4457 14.0285 14.386L14.4906 12.5374C14.4966 12.5133 14.5115 12.4922 14.5322 12.4784L15.9554 11.5298C15.9831 11.5113 15.9998 11.4801 15.9999 11.4467L16.0005 11.0323C16.0005 11.0112 15.9938 10.9905 15.9813 10.9734L13.4975 7.55793L15.9772 4.52733C15.9919 4.50948 15.9998 4.48712 15.9999 4.46406L16 4.08605C16.0001 4.03667 15.9641 3.99467 15.9153 3.98716L14.4141 3.75614C14.389 3.75228 14.3663 3.73903 14.3506 3.71908L13.0415 2.05263C13.0164 2.02068 12.9745 2.00709 12.9354 2.01825L11.4454 2.444L11.0162 0.0816372C11.0076 0.0340454 10.9661 -0.000535419 10.9177 -0.000488233L10.5241 -0.000103857C10.5087 -8.87333e-05 10.4934 0.00352351 10.4795 0.0104481L7.10844 1.6955L4.02214 0.0121029C4.00745 0.00409141 3.99099 -0.000106723 3.97426 -0.000107044L2.59998 -0.000133407C2.54475 -0.000134466 2.49998 0.0446371 2.49998 0.0998664L2.49998 3.47869L0.0794149 3.98326C0.0330484 3.99293 -0.000178271 4.0338 -0.000178272 4.08116L-0.000178275 4.4526ZM3.00013 3.00008H3.50013H12.5001H13.0001V3.50008V12.5001V13.0001H12.5001H3.50013H3.00013V12.5001V3.50008V3.00008ZM4.00013 8.49995V12.0001H12.0001V4.00008H4.00013V8.49987L8.50007 4.99992L11.0001 10.9999L4.00013 8.49995Z" fill="black"/>
</g>
</g>
<defs>
<clipPath id="clip0_1263_24566">
<rect width="16" height="16" fill="white"/>
</clipPath>
</defs>
</svg>
