<svg width="16" height="16" viewBox="0 0 16 16" fill="none" xmlns="http://www.w3.org/2000/svg">
<g id="snap-distribution">
<g id="snap-distribution_2">
<path id="Union" fill-rule="evenodd" clip-rule="evenodd" d="M1.50098 15H1.00098V14.5V1.5V1H1.50098H4.50098H5.00098V1.5V4.75V5.25L4.00098 5.25L4.00098 4.75V2L2.00098 2V14H4.00098V11.25V10.75L5.00098 10.75V11.25V14.5V15H4.50098H1.50098ZM14.501 15H15.001V14.5V1.5V1H14.501H11.501H11.001V1.5V4.75V5.25L12.001 5.25V4.75V2L14.001 2V14H12.001V11.25V10.75L11.001 10.75V11.25V14.5V15H11.501H14.501Z" fill="black"/>
<path id="error" fill-rule="evenodd" clip-rule="evenodd" d="M4.5 9.5C5.15567 9.5 5.71308 9.07932 5.91705 8.49315C5.94403 8.49766 5.97174 8.5 6 8.5L10 8.5C10.0283 8.5 10.056 8.49766 10.083 8.49315C10.2869 9.07932 10.8443 9.5 11.5 9.5C12.3284 9.5 13 8.82843 13 8C13 7.17157 12.3284 6.5 11.5 6.5C10.8443 6.5 10.2869 6.92068 10.083 7.50685C10.056 7.50234 10.0283 7.5 10 7.5L6 7.5C5.97174 7.5 5.94403 7.50234 5.91705 7.50685C5.71308 6.92068 5.15567 6.5 4.5 6.5C3.67157 6.5 3 7.17157 3 8C3 8.82843 3.67157 9.5 4.5 9.5Z" fill="black"/>
</g>
</g>
</svg>
