<svg width="16" height="16" viewBox="0 0 16 16" fill="none" xmlns="http://www.w3.org/2000/svg">
<g id="snap-nodes-path">
<g id="snap-nodes-path_2">
<path id="Subtract" fill-rule="evenodd" clip-rule="evenodd" d="M1.5 3.5H12.5C13.6046 3.5 14.5 4.39543 14.5 5.5C14.5 6.60457 13.6046 7.5 12.5 7.5H10.451C10.4838 7.66155 10.501 7.82877 10.501 8C10.501 8.17123 10.4838 8.33845 10.451 8.5H12.5C14.1569 8.5 15.5 7.15685 15.5 5.5C15.5 3.84315 14.1569 2.5 12.5 2.5H1.5V3.5ZM5.55099 8.5C5.51819 8.33845 5.50098 8.17123 5.50098 8C5.50098 7.82877 5.51819 7.66155 5.55099 7.5H3.5C1.84315 7.5 0.5 8.84315 0.5 10.5C0.5 12.1569 1.84315 13.5 3.5 13.5H14.5V12.5H3.5C2.39543 12.5 1.5 11.6046 1.5 10.5C1.5 9.39543 2.39543 8.5 3.5 8.5H5.55099Z" fill="black"/>
<circle id="error" cx="8" cy="8" r="1.5" fill="black"/>
</g>
</g>
</svg>
