<svg width="16" height="16" viewBox="0 0 16 16" fill="none" xmlns="http://www.w3.org/2000/svg">
<g id="switch-on">
<g id="check-circle">
<path id="Union" fill-rule="evenodd" clip-rule="evenodd" d="M14 8C14 11.3137 11.3137 14 8 14C4.68629 14 2 11.3137 2 8C2 4.68629 4.68629 2 8 2C11.3137 2 14 4.68629 14 8ZM15 8C15 11.866 11.866 15 8 15C4.13401 15 1 11.866 1 8C1 4.13401 4.13401 1 8 1C11.866 1 15 4.13401 15 8ZM10.6464 5.64645L11 5.29289L11.7071 6L11.3536 6.35355L7.35355 10.3536L7 10.7071L6.64645 10.3536L4.64645 8.35355L4.29289 8L5 7.29289L5.35355 7.64645L7 9.29289L10.6464 5.64645Z" fill="black"/>
</g>
</g>
</svg>
