<svg width="16" height="16" viewBox="0 0 16 16" fill="none" xmlns="http://www.w3.org/2000/svg">
<g id="window-previous">
<g id="window-arrow-left">
<path id="Union" fill-rule="evenodd" clip-rule="evenodd" d="M11.8534 9.35363L12.2069 9.00008L11.4998 8.29297L11.1463 8.64652L8.64628 11.1465L8.29272 11.5001L8.64628 11.8536L11.1463 14.3536L11.4998 14.7072L12.2069 14.0001L11.8534 13.6465L10.2069 12.0001H14.4998H14.9998V11.0001H14.4998H10.2069L11.8534 9.35363Z" fill="black"/>
<path id="Union_2" fill-rule="evenodd" clip-rule="evenodd" d="M1.50098 1H1.00098V1.5V2V4V14.5V15H1.50098H6.5H7V14H6.5H2.00098L2.00098 5H14.001V6.5V7H15.001V6.5V4V2V1.5V1H14.501H14.001H2.00098H1.50098ZM14.001 4V2H2.00098V4H14.001Z" fill="black"/>
<rect id="Rectangle 778" opacity="0.2" x="2" y="2" width="12" height="2" fill="black"/>
</g>
</g>
</svg>
