<svg width="16" height="16" viewBox="0 0 16 16" fill="none" xmlns="http://www.w3.org/2000/svg">
<g id="y-axis-down">
<g id="axis-y-top" clip-path="url(#clip0_3416_6681)">
<path id="Subtract" opacity="0.2" fill-rule="evenodd" clip-rule="evenodd" d="M3.5 5C4.32843 5 5 4.32843 5 3.5C5 3.32468 4.96992 3.15639 4.91465 3H16V16H3V4.91465C3.15639 4.96992 3.32468 5 3.5 5Z" fill="black"/>
<path id="Union" fill-rule="evenodd" clip-rule="evenodd" d="M12.2929 3.00004L10.6465 1.35359L11.3536 0.646484L13.8536 3.14648L14.2071 3.50004L13.8536 3.85359L11.3536 6.35359L10.6465 5.64648L12.2929 4.00004H5.95003C5.7512 4.97956 4.97967 5.75112 4.00016 5.95L4.00016 12.2928L5.64648 10.6465L6.35359 11.3536L3.85359 13.8536L3.50004 14.2071L3.14648 13.8536L0.646484 11.3536L1.35359 10.6465L3.00016 12.2931L3.00016 5.95005C1.85898 5.71846 1.00004 4.70956 1.00004 3.50004C1.00004 2.11933 2.11933 1.00004 3.50004 1.00004C4.70952 1.00004 5.71839 1.85892 5.95003 3.00004H12.2929ZM5.00004 3.49883C4.99938 2.67096 4.32806 2.00004 3.50004 2.00004C2.67161 2.00004 2.00004 2.67161 2.00004 3.50004C2.00004 4.32846 2.67161 5.00004 3.50004 5.00004C4.32806 5.00004 4.99938 4.32912 5.00004 3.50125C5.00004 3.50084 5.00004 3.50044 5.00004 3.50004C5.00004 3.49963 5.00004 3.49923 5.00004 3.49883Z" fill="black"/>
</g>
</g>
<defs>
<clipPath id="clip0_3416_6681">
<rect width="16" height="16" fill="white"/>
</clipPath>
</defs>
</svg>
