<svg width="16" height="16" viewBox="0 0 16 16" fill="none" xmlns="http://www.w3.org/2000/svg">
<g id="zoom-original">
<g id="frame-fraction-1-1" clip-path="url(#clip0_1263_24655)">
<g id="frame" clip-path="url(#clip1_1263_24655)">
<path id="Union" fill-rule="evenodd" clip-rule="evenodd" d="M0.5 0H0V0.5V3V3.5H1V3V1H3H3.5V0H3H0.5ZM0.5 16H0V15.5V13V12.5H1V13V15H3H3.5V16H3H0.5ZM16 0H15.5H13H12.5V1H13H15V3V3.5H16V3V0.5V0ZM15.5 16H16V15.5V13V12.5H15V13V15H13H12.5V16H13H15.5Z" fill="black"/>
</g>
<path id="Union_2" fill-rule="evenodd" clip-rule="evenodd" d="M5.06341 7.99984V2.90894H3.79068L2.53784 3.67456V4.84786L3.65148 4.18166H3.68131V7.99984H5.06341ZM13.0634 12.9999V7.90897H11.7907L10.5378 8.67459V9.84789L11.6515 9.1817H11.6813V12.9999H13.0634Z" fill="black"/>
<path id="Subtract" fill-rule="evenodd" clip-rule="evenodd" d="M8.94092 5H10.059L7.05895 11H5.94092L8.94092 5Z" fill="black"/>
</g>
</g>
<defs>
<clipPath id="clip0_1263_24655">
<rect width="16" height="16" fill="white"/>
</clipPath>
<clipPath id="clip1_1263_24655">
<rect width="16" height="16" fill="white"/>
</clipPath>
</defs>
</svg>
