<svg width="16" height="16" viewBox="0 0 16 16" fill="none" xmlns="http://www.w3.org/2000/svg">
<g id="zoom-center-page">
<g id="frame-center-page" clip-path="url(#clip0_1263_24658)">
<path id="Union" fill-rule="evenodd" clip-rule="evenodd" d="M0 0H0.5H3H3.5V1H3H1V3V3.5H0V3V0.5V0ZM0 16H0.5H3H3.5V15H3H1V13V12.5H0V13V15.5V16ZM15.5 0H16V0.5V3V3.5H15V3V1H13H12.5V0H13H15.5ZM16 16H15.5H13H12.5V15H13H15V13V12.5H16V13V15.5V16ZM5 13.0005H12V5.41423L9.58582 3.00005L5 3.00042V13.0005ZM4 2.0005L10 2.00001L13 5.00001V13.0005V14.0005H12H5H4V13.0005V2.0005ZM8 8.00003V6.00003H9V8.00003H11V9.00003H9V11H8V9.00003H6V8.00003H8Z" fill="black"/>
</g>
</g>
<defs>
<clipPath id="clip0_1263_24658">
<rect width="16" height="16" fill="white"/>
</clipPath>
</defs>
</svg>
